Cyclistic_trip Case Study
…
##   Length    Class     Mode 
##  5900385 difftime  numeric

#ride_length in character format convert it into numeric

all_trips$ride_length <- as.numeric(all_trips$ride_length)

#filter data where ride duration less than 0

biketripdata <- filter(all_trips,ride_length>0)
filter(all_trips,ride_length>0)

## # A tibble: 5,899,739 x 17
##    ride_id          rideable_type started_at          ended_at           
##    <chr>            <chr>         <dttm>              <dttm>             
##  1 0A1B623926EF4E16 docked_bike   2021-07-02 14:44:36 2021-07-02 15:19:58
##  2 B2D5583A5A5E76EE classic_bike  2021-07-07 16:57:42 2021-07-07 17:16:09
##  3 6F264597DDBF427A classic_bike  2021-07-25 11:30:55 2021-07-25 11:48:45
##  4 379B58EAB20E8AA5 classic_bike  2021-07-08 22:08:30 2021-07-08 22:23:32
##  5 6615C1E4EB08E8FB electric_bike 2021-07-28 16:08:06 2021-07-28 16:27:09
##  6 62DC2B32872F9BA8 electric_bike 2021-07-29 17:09:08 2021-07-29 17:15:00
##  7 4BBB6E80E6A2A16D classic_bike  2021-07-28 16:51:47 2021-07-28 17:03:45
##  8 22CA03D32C6BB094 classic_bike  2021-07-03 12:44:50 2021-07-03 12:52:55
##  9 61F0D07D1EEE72EE classic_bike  2021-07-02 18:18:22 2021-07-02 18:38:21
## 10 09B4551386A8410E classic_bike  2021-07-29 21:54:05 2021-07-29 22:07:26
## # ... with 5,899,729 more rows, and 13 more variables:
## #   start_station_name <chr>, start_station_id <chr>, end_station_name <chr>,
## #   end_station_id <chr>, start_lat <dbl>, start_lng <dbl>, end_lat <dbl>,
## #   end_lng <dbl>, member_casual <chr>, rideDate <date>, month <chr>,
## #   day_of_week <chr>, ride_length <dbl>
…
